# This file uses centimeters as units for non-parametric coordinates.

v 0.030902 0.500000 0.095106
v -0.000000 0.500000 0.100000
v -0.030902 0.500000 0.095106
v -0.058779 0.500000 0.080902
v -0.080902 0.500000 0.058779
v -0.095106 0.500000 0.030902
v -0.100000 0.500000 0.000000
v -0.095106 0.500000 -0.030902
v -0.080902 0.500000 -0.058779
v -0.058779 0.500000 -0.080902
v -0.030902 0.500000 -0.095106
v 0.000000 0.500000 -0.100000
v -0.000000 0.500000 -0.250000
v -0.095671 0.500000 -0.230970
v -0.176777 0.500000 -0.176777
v -0.230970 0.500000 -0.095671
v -0.250000 0.500000 0.000000
v -0.230970 0.500000 0.095671
v -0.176777 0.500000 0.176777
v -0.095671 0.500000 0.230970
v 0.000000 0.500000 0.250000
v 0.230970 0.500000 0.095671
v 0.250000 0.500000 -0.000000
v 0.230970 0.500000 -0.095671
v 0.176777 0.500000 -0.176777
v 0.095671 0.500000 -0.230970
v 0.030902 0.500000 -0.095106
v 0.058779 0.500000 -0.080902
v 0.080902 0.500000 -0.058779
v 0.095106 0.500000 -0.030902
v 0.100000 0.500000 0.000000
v 0.095106 0.500000 0.030902
v 0.080902 0.500000 0.058779
v 0.058779 0.500000 0.080902
v 0.095671 0.500000 0.230970
v 0.176777 0.500000 0.176777
v 0.000000 0.000000 0.000000
v 0.080902 1.000000 -0.058779
v 0.095106 1.000000 -0.030902
v 0.058779 1.000000 -0.080902
v 0.100000 1.000000 0.000000
v 0.030902 1.000000 -0.095106
v 0.095106 1.000000 0.030902
v 0.000000 1.000000 -0.100000
v 0.080902 1.000000 0.058779
v -0.030902 1.000000 -0.095106
v 0.058779 1.000000 0.080902
v -0.058779 1.000000 -0.080902
v 0.030902 1.000000 0.095106
v -0.080902 1.000000 -0.058779
v -0.000000 1.000000 0.100000
v -0.095106 1.000000 -0.030902
v -0.030902 1.000000 0.095106
v -0.100000 1.000000 0.000000
v -0.058779 1.000000 0.080902
v -0.095106 1.000000 0.030902
v -0.080902 1.000000 0.058779
vt 0.530902 0.154894
vt 0.500000 0.150000
vt 0.469098 0.154894
vt 0.441221 0.169098
vt 0.419098 0.191221
vt 0.404894 0.219098
vt 0.400000 0.250000
vt 0.404894 0.280902
vt 0.419098 0.308779
vt 0.441221 0.330902
vt 0.469098 0.345106
vt 0.500000 0.350000
vt 0.500000 0.500000
vt 0.404329 0.480970
vt 0.323223 0.426777
vt 0.269030 0.345671
vt 0.250000 0.250000
vt 0.269030 0.154329
vt 0.323223 0.073223
vt 0.404329 0.019030
vt 0.500000 0.000000
vt 0.730970 0.154329
vt 0.750000 0.250000
vt 0.730970 0.345671
vt 0.676777 0.426777
vt 0.595671 0.480970
vt 0.530902 0.345106
vt 0.558779 0.330902
vt 0.580902 0.308779
vt 0.595106 0.280902
vt 0.600000 0.250000
vt 0.595106 0.219098
vt 0.580902 0.191221
vt 0.558779 0.169098
vt 0.595671 0.019030
vt 0.676777 0.073223
vt 0.250000 0.500000
vt 0.281250 0.500000
vt 0.500000 1.000000
vt 0.718750 0.500000
vt 0.750000 0.500000
vt 0.687500 0.500000
vt 0.656250 0.500000
vt 0.625000 0.500000
vt 0.593750 0.500000
vt 0.562500 0.500000
vt 0.531250 0.500000
vt 0.500000 0.500000
vt 0.468750 0.500000
vt 0.437500 0.500000
vt 0.406250 0.500000
vt 0.375000 0.500000
vt 0.343750 0.500000
vt 0.312500 0.500000
vt 0.387500 0.326541
vt 0.387500 0.688440
vt 0.375000 0.688440
vt 0.375000 0.326541
vt 0.400000 0.326541
vt 0.400000 0.688440
vt 0.648603 0.892034
vt 0.626409 0.935591
vt 0.625000 0.326541
vt 0.625000 0.688440
vt 0.612500 0.688440
vt 0.612500 0.326541
vt 0.412500 0.326541
vt 0.412500 0.688440
vt 0.591841 0.970159
vt 0.656250 0.843750
vt 0.600000 0.688440
vt 0.600000 0.326541
vt 0.425000 0.326541
vt 0.425000 0.688440
vt 0.548284 0.992353
vt 0.648603 0.795466
vt 0.587500 0.688440
vt 0.587500 0.326541
vt 0.437500 0.326541
vt 0.437500 0.688440
vt 0.500000 1.000000
vt 0.626409 0.751908
vt 0.575000 0.688440
vt 0.575000 0.326541
vt 0.450000 0.326541
vt 0.450000 0.688440
vt 0.451716 0.992353
vt 0.591842 0.717341
vt 0.562500 0.688440
vt 0.562500 0.326541
vt 0.462500 0.326541
vt 0.462500 0.688440
vt 0.408159 0.970159
vt 0.548284 0.695147
vt 0.550000 0.688440
vt 0.550000 0.326541
vt 0.475000 0.326541
vt 0.475000 0.688440
vt 0.373591 0.935591
vt 0.500000 0.687500
vt 0.537500 0.688440
vt 0.537500 0.326541
vt 0.487500 0.326541
vt 0.487500 0.688440
vt 0.351397 0.892034
vt 0.451716 0.695147
vt 0.525000 0.688440
vt 0.525000 0.326541
vt 0.500000 0.326541
vt 0.500000 0.688440
vt 0.343750 0.843750
vt 0.408159 0.717341
vt 0.512500 0.688440
vt 0.512500 0.326541
vt 0.351397 0.795466
vt 0.373591 0.751909
vn 0.000000 1.000000 -0.000000
vn 0.000000 1.000000 0.000000
vn 0.000000 1.000000 0.000000
vn 0.000000 1.000000 0.000000
vn 0.000000 1.000000 0.000000
vn 0.000000 1.000000 0.000000
vn 0.000000 1.000000 0.000000
vn 0.000000 1.000000 0.000000
vn 0.000000 1.000000 0.000000
vn 0.000000 1.000000 0.000000
vn 0.000000 1.000000 0.000000
vn 0.000000 1.000000 -0.000000
vn 0.000000 1.000000 -0.000000
vn 0.000000 1.000000 0.000000
vn 0.000000 1.000000 0.000000
vn 0.000000 1.000000 0.000000
vn 0.000000 1.000000 0.000000
vn 0.000000 1.000000 0.000000
vn 0.000000 1.000000 0.000000
vn 0.000000 1.000000 0.000000
vn 0.000000 1.000000 -0.000000
vn 0.000000 1.000000 -0.000000
vn 0.000000 1.000000 -0.000000
vn 0.000000 1.000000 -0.000000
vn 0.000000 1.000000 -0.000000
vn 0.000000 1.000000 -0.000000
vn 0.000000 1.000000 -0.000000
vn 0.000000 1.000000 -0.000000
vn 0.000000 1.000000 -0.000000
vn 0.000000 1.000000 -0.000000
vn 0.000000 1.000000 -0.000000
vn 0.000000 1.000000 -0.000000
vn 0.000000 1.000000 -0.000000
vn 0.000000 1.000000 -0.000000
vn 0.000000 1.000000 -0.000000
vn 0.000000 1.000000 -0.000000
vn 0.826343 -0.447214 0.342282
vn 0.632456 -0.447214 0.632455
vn -0.000000 -1.000000 0.000000
vn 0.894427 -0.447214 -0.000000
vn 0.826343 -0.447214 -0.342283
vn 0.632456 -0.447214 -0.632456
vn 0.342282 -0.447214 -0.826343
vn -0.000000 -0.447214 -0.894427
vn -0.342283 -0.447214 -0.826343
vn -0.632456 -0.447214 -0.632455
vn -0.826343 -0.447214 -0.342282
vn -0.894427 -0.447214 0.000000
vn -0.826343 -0.447214 0.342283
vn -0.632455 -0.447214 0.632456
vn -0.342282 -0.447214 0.826343
vn 0.000001 -0.447214 0.894427
vn 0.342283 -0.447214 0.826343
vn 0.809017 0.000000 -0.587785
vn 0.809017 0.000000 -0.587785
vn 0.951057 0.000000 -0.309016
vn 0.951057 0.000000 -0.309016
vn 0.587785 0.000000 -0.809017
vn 0.587785 0.000000 -0.809017
vn 0.000000 1.000000 -0.000000
vn 0.000000 1.000000 -0.000000
vn 0.000000 1.000000 -0.000000
vn 0.000000 1.000000 -0.000000
vn 0.000000 1.000000 -0.000000
vn 0.000000 1.000000 -0.000000
vn 0.000000 1.000000 -0.000000
vn 0.000000 1.000000 -0.000000
vn 0.000000 1.000000 -0.000000
vn 0.000000 1.000000 -0.000000
vn 0.000000 1.000000 -0.000000
vn 0.000000 1.000000 -0.000000
vn 0.000000 1.000000 -0.000000
vn 0.000000 1.000000 -0.000000
vn 0.000000 1.000000 -0.000000
vn 0.000000 1.000000 -0.000000
vn 0.000000 1.000000 -0.000000
vn 0.000000 1.000000 -0.000000
vn 0.000000 1.000000 -0.000000
vn 0.000000 1.000000 -0.000000
vn 1.000000 0.000000 0.000001
vn 1.000000 0.000000 0.000001
vn 0.309017 0.000000 -0.951057
vn 0.309017 0.000000 -0.951057
vn 0.951057 0.000000 0.309017
vn 0.951057 0.000000 0.309017
vn 0.000000 0.000000 -1.000000
vn 0.000000 0.000000 -1.000000
vn 0.809017 0.000000 0.587785
vn 0.809017 0.000000 0.587785
vn -0.309017 0.000000 -0.951057
vn -0.309017 0.000000 -0.951057
vn 0.587785 0.000000 0.809017
vn 0.587785 0.000000 0.809017
vn -0.587786 0.000000 -0.809017
vn -0.587786 0.000000 -0.809017
vn 0.309017 0.000000 0.951056
vn 0.309017 0.000000 0.951056
vn -0.809017 0.000000 -0.587785
vn -0.809017 0.000000 -0.587785
vn 0.000000 0.000000 1.000000
vn 0.000000 0.000000 1.000000
vn -0.951057 0.000000 -0.309017
vn -0.951057 0.000000 -0.309017
vn -0.309017 0.000000 0.951057
vn -0.309017 0.000000 0.951057
vn -1.000000 0.000000 0.000000
vn -1.000000 0.000000 0.000000
vn -0.587785 0.000000 0.809017
vn -0.587785 0.000000 0.809017
vn -0.951057 0.000000 0.309017
vn -0.951057 0.000000 0.309017
vn -0.809017 0.000000 0.587785
vn -0.809017 0.000000 0.587785
s 1
f 1/1/1 2/2/2 3/3/3 4/4/4 5/5/5 6/6/6 7/7/7 8/8/8 9/9/9 10/10/10 11/11/11 12/12/12 13/13/13 14/14/14 15/15/15 16/16/16 17/17/17 18/18/18 19/19/19 20/20/20 21/21/21
f 22/22/22 23/23/23 24/24/24 25/25/25 26/26/26 13/13/13 12/12/12 27/27/27 28/28/28 29/29/29 30/30/30 31/31/31 32/32/32 33/33/33 34/34/34 1/1/1 21/21/21 35/35/35 36/36/36
s 2
f 22/37/37 36/38/38 37/39/39
f 23/40/40 22/41/37 37/39/39
f 24/42/41 23/40/40 37/39/39
f 25/43/42 24/42/41 37/39/39
f 26/44/43 25/43/42 37/39/39
f 13/45/44 26/44/43 37/39/39
f 14/46/45 13/45/44 37/39/39
f 15/47/46 14/46/45 37/39/39
f 16/48/47 15/47/46 37/39/39
f 17/49/48 16/48/47 37/39/39
f 18/50/49 17/49/48 37/39/39
f 19/51/50 18/50/49 37/39/39
f 20/52/51 19/51/50 37/39/39
f 21/53/52 20/52/51 37/39/39
f 35/54/53 21/53/52 37/39/39
f 36/38/38 35/54/53 37/39/39
s 3
f 29/55/54 38/56/55 39/57/56 30/58/57
f 28/59/58 40/60/59 38/56/55 29/55/54
s off
f 57/116/60 55/112/61 53/106/62 51/100/63 49/94/64 47/88/65 45/82/66 43/76/67 41/70/68 39/61/69 38/62/70 40/69/71 42/75/72 44/81/73 46/87/74 48/93/75 50/99/76 52/105/77 54/111/78 56/115/79
s 3
f 30/63/57 39/64/56 41/65/80 31/66/81
f 27/67/82 42/68/83 40/60/59 28/59/58
f 31/66/81 41/65/80 43/71/84 32/72/85
f 12/73/86 44/74/87 42/68/83 27/67/82
f 32/72/85 43/71/84 45/77/88 33/78/89
f 11/79/90 46/80/91 44/74/87 12/73/86
f 33/78/89 45/77/88 47/83/92 34/84/93
f 10/85/94 48/86/95 46/80/91 11/79/90
f 34/84/93 47/83/92 49/89/96 1/90/97
f 9/91/98 50/92/99 48/86/95 10/85/94
f 1/90/97 49/89/96 51/95/100 2/96/101
f 8/97/102 52/98/103 50/92/99 9/91/98
f 2/96/101 51/95/100 53/101/104 3/102/105
f 7/103/106 54/104/107 52/98/103 8/97/102
f 3/102/105 53/101/104 55/107/108 4/108/109
f 6/109/110 56/110/111 54/104/107 7/103/106
f 4/108/109 55/107/108 57/113/112 5/114/113
f 5/114/113 57/113/112 56/110/111 6/109/110
