# This file uses centimeters as units for non-parametric coordinates.

v 0.910709 7.142057 5.000015
v 1.566509 7.579133 5.000015
v 5.000015 10.576101 5.000015
v 5.000015 20.231609 5.000015
v -5.000015 20.231609 5.000015
v -5.000015 10.251576 5.000015
v -3.312048 3.835616 3.787121
v -4.028660 2.042124 0.543610
v 5.000015 9.019751 2.910438
v 5.000015 5.810493 -5.000015
v 5.000015 20.231609 -5.000015
v -5.000015 20.231609 -5.000015
v -5.000015 11.485335 -5.000015
v -5.000015 4.030887 -2.912274
v -5.000015 2.501055 -0.149982
v -5.000015 5.749461 4.012201
v 3.125826 4.561389 -5.000015
v -0.482696 4.839270 -5.000015
vt 0.522768 0.070510
vt 0.539163 0.076504
vt 0.625000 0.117599
vt 0.625000 0.250000
vt 0.375000 0.250000
vt 0.375000 0.113149
vt 0.294028 0.075559
vt 0.249418 0.048945
vt 0.302712 0.161073
vt 0.303849 0.150325
vt 0.577264 0.263693
vt 0.421116 0.440841
vt 0.619747 0.402066
vt 0.677239 0.096258
vt 0.875000 0.052251
vt 0.875000 0.250000
vt 0.625000 0.500000
vt 0.375000 0.500000
vt 0.125000 0.250000
vt 0.125000 0.130067
vt 0.177193 0.027848
vt 0.246250 0.006871
vt 0.350305 0.051414
vt 0.297676 0.115426
vt 0.244082 0.066472
vt 0.235111 0.081565
vt 0.263669 0.124829
vt 0.267216 0.207764
vt 0.155387 0.171498
vt 0.158638 0.140783
vt 0.487933 0.711067
vt 0.375000 0.619933
vt 0.625000 0.697749
vt 0.578145 0.714877
vt 0.277559 0.158426
vt 0.261564 0.053475
vt 0.208586 0.150234
vt 0.477858 0.603638
vt 0.445462 0.659365
vt 0.485039 0.724245
vt 0.536213 0.742429
vt 0.499768 0.594540
vt 0.419075 0.521266
vt 0.424162 0.638350
vt 0.464718 0.684957
vt 0.557031 0.591050
vn 0.000000 0.000000 1.000000
vn 0.000000 0.000000 1.000000
vn 0.000000 0.000000 1.000000
vn 0.000000 0.000000 1.000000
vn 0.000000 0.000000 1.000000
vn 0.000000 0.000000 1.000000
vn 0.573476 -0.657009 0.489351
vn 0.573476 -0.657009 0.489351
vn 0.573476 -0.657009 0.489351
vn 1.000000 0.000000 0.000000
vn 1.000000 0.000000 0.000000
vn 1.000000 0.000000 0.000000
vn 1.000000 0.000000 0.000000
vn 1.000000 0.000000 0.000000
vn 0.000000 1.000000 0.000000
vn 0.000000 1.000000 0.000000
vn 0.000000 1.000000 0.000000
vn 0.000000 1.000000 0.000000
vn -1.000000 0.000000 0.000000
vn -1.000000 0.000000 0.000000
vn -1.000000 0.000000 0.000000
vn -1.000000 0.000000 0.000000
vn -1.000000 0.000000 0.000000
vn -1.000000 0.000000 0.000000
vn -1.000000 0.000000 0.000000
vn -0.630255 -0.612048 0.477677
vn -0.630255 -0.612048 0.477678
vn -0.630255 -0.612048 0.477677
vn -0.630255 -0.612048 0.477678
vn 0.525456 -0.788409 0.319856
vn 0.525456 -0.788409 0.319856
vn 0.525456 -0.788408 0.319856
vn 0.525456 -0.788409 0.319856
vn 0.525456 -0.788409 0.319856
vn 0.525456 -0.788409 0.319856
vn 0.525456 -0.788409 0.319856
vn -0.000000 0.000000 -1.000000
vn -0.000000 0.000000 -1.000000
vn -0.000000 0.000000 -1.000000
vn -0.000000 0.000000 -1.000000
vn -0.000000 0.000000 -1.000000
vn -0.000000 0.000000 -1.000000
vn -0.368807 -0.250678 -0.895065
vn -0.368807 -0.250678 -0.895065
vn -0.368807 -0.250678 -0.895065
vn -0.067213 -0.872820 -0.483391
vn -0.067213 -0.872820 -0.483391
vn -0.067213 -0.872820 -0.483391
vn -0.067213 -0.872820 -0.483391
vn -0.067213 -0.872820 -0.483391
vn -0.112036 -0.212964 0.970615
vn -0.112036 -0.212964 0.970616
vn -0.112036 -0.212964 0.970616
vn -0.112036 -0.212964 0.970615
s off
f 1/1/1 2/2/2 3/3/3 4/4/4 5/5/5 6/6/6
f 3/11/7 2/12/8 9/13/9
f 9/14/10 10/15/11 11/16/12 4/4/13 3/3/14
f 5/5/15 4/4/16 11/17/17 12/18/18
f 6/6/19 5/5/20 12/19/21 13/20/22 14/21/23 15/22/24 16/23/25
f 16/24/26 15/25/27 8/26/28 7/27/29
f 17/30/30 10/29/31 9/28/32 2/9/33 1/10/34 7/7/35 8/8/36
f 18/31/37 13/32/38 12/18/39 11/17/40 10/33/41 17/34/42
f 14/35/43 13/36/44 18/37/45
f 15/38/46 14/39/47 18/40/48 17/41/49 8/42/50
f 6/43/51 16/44/52 7/45/53 1/46/54
